<?xml version="1.0" encoding="utf-8"?>
<!-- Generator: Adobe Illustrator 16.0.0, SVG Export Plug-In . SVG Version: 6.00 Build 0)  -->
<!DOCTYPE svg PUBLIC "-//W3C//DTD SVG 1.1//EN" "http://www.w3.org/Graphics/SVG/1.1/DTD/svg11.dtd">
<svg version="1.1" id="Layer_1" xmlns="http://www.w3.org/2000/svg" xmlns:xlink="http://www.w3.org/1999/xlink" x="0px" y="0px"
	 width="23.25px" height="20px" viewBox="0 0 23.25 20" enable-background="new 0 0 23.25 20" xml:space="preserve">
<g>
	<path fill="#BAC0CE" d="M6.018,19.813c-0.386,0-0.701-0.313-0.701-0.7v-3.505H2.514c-1.161,0-2.104-0.94-2.104-2.103V2.291
		c0-1.163,0.942-2.104,2.104-2.104h18.223c1.161,0,2.104,0.94,2.104,2.104v11.214c0,1.162-0.942,2.103-2.104,2.103H10.514
		l-4.001,3.999C6.382,19.739,6.204,19.813,6.018,19.813z M2.514,1.59c-0.387,0-0.701,0.313-0.701,0.701v11.214
		c0,0.387,0.314,0.7,0.701,0.7h3.504c0.387,0,0.701,0.313,0.701,0.701v2.514l3.009-3.01c0.131-0.133,0.309-0.205,0.495-0.205h10.514
		c0.388,0,0.701-0.313,0.701-0.7V2.291c0-0.388-0.313-0.701-0.701-0.701H2.514z"/>
</g>
</svg>
