<?xml version="1.0" encoding="utf-8"?>
<!-- Generator: Adobe Illustrator 16.0.0, SVG Export Plug-In . SVG Version: 6.00 Build 0)  -->
<!DOCTYPE svg PUBLIC "-//W3C//DTD SVG 1.1//EN" "http://www.w3.org/Graphics/SVG/1.1/DTD/svg11.dtd">
<svg version="1.1" id="Layer_1" xmlns="http://www.w3.org/2000/svg" xmlns:xlink="http://www.w3.org/1999/xlink" x="0px" y="0px"
	 width="20px" height="20px" viewBox="0 0 20 20" enable-background="new 0 0 20 20" xml:space="preserve">
<g>
	<g id="error_1_">
		<g>
			<path fill="#BAC0CE" d="M9.999,0.205c-5.386,0-9.794,4.408-9.794,9.795c0,5.388,4.408,9.795,9.794,9.795
				c5.389,0,9.796-4.407,9.796-9.795C19.795,4.613,15.388,0.205,9.999,0.205z M10.98,14.897h-1.96v-1.958h1.96V14.897z M10.98,10.98
				h-1.96V5.103h1.96V10.98z"/>
		</g>
	</g>
</g>
</svg>
