<svg xmlns="http://www.w3.org/2000/svg" width="16.02" height="16.02" viewBox="0 0 16.02 16.02">
  <g id="customer-support" transform="translate(-0.273)">
    <path id="Path_266" data-name="Path 266" d="M.348,1.545,1.416,3.414a.267.267,0,0,0,.167.126l1,.249L5.995,7.205l.377-.377L2.9,3.358a.266.266,0,0,0-.124-.07l-.957-.24L.913,1.456,1.692.677l1.592.91.24.957a.266.266,0,0,0,.07.124l3.47,3.47.377-.377L4.026,2.344l-.249-1a.267.267,0,0,0-.126-.167L1.782.114a.267.267,0,0,0-.32.043L.394,1.225a.267.267,0,0,0-.046.321Zm0,0" transform="translate(-0.04 -0.077)" fill="#313b56"/>
    <path id="Path_267" data-name="Path 267" d="M180.23,174.1l-5.871,5.871-.377-.377,5.871-5.871Zm0,0" transform="translate(-168.825 -168.837)" fill="#313b56"/>
    <path id="Path_268" data-name="Path 268" d="M50.651,398.965a.267.267,0,0,0-.229-.129h-1.6a.267.267,0,0,0-.229.129l-.8,1.334a.267.267,0,0,0,0,.275l.8,1.334a.267.267,0,0,0,.229.129h1.6a.267.267,0,0,0,.229-.129l.8-1.334a.267.267,0,0,0,0-.275Zm-.38,2.539h-1.3l-.641-1.067.641-1.068h1.3l.641,1.068Zm0,0" transform="translate(-46.145 -387.626)" fill="#313b56"/>
    <path id="Path_269" data-name="Path 269" d="M13.084,6.406a3.192,3.192,0,0,0,3.1-3.977.267.267,0,0,0-.447-.124L14.08,3.965l-1.318-.439-.44-1.318L13.983.546A.267.267,0,0,0,13.858.1,3.193,3.193,0,0,0,9.881,3.2a3.133,3.133,0,0,0,.065.625L4.1,9.673a3.148,3.148,0,0,0-.625-.065,3.2,3.2,0,1,0,3.2,3.2,3.141,3.141,0,0,0-.065-.625l1.4-1.4.612.612A.267.267,0,0,0,9,11.4l.133-.134a.3.3,0,0,1,.424.423h0l-.133.133a.267.267,0,0,0,0,.377l3.184,3.184a2.154,2.154,0,1,0,3.06-3.032l-.014-.014L12.472,9.153a.267.267,0,0,0-.377,0l-.133.133a.3.3,0,0,1-.424-.423h0l.134-.134a.267.267,0,0,0,0-.377l-.612-.612,1.4-1.4a3.14,3.14,0,0,0,.625.065Zm1.049,9.074a1.622,1.622,0,0,1-.568-.1l2.084-2.084a1.618,1.618,0,0,1-1.517,2.188ZM11.109,8.543a.833.833,0,0,0,1.174,1.173l3,3c.032.033.063.067.092.1L13.089,15.1c-.035-.029-.069-.06-.1-.092l-3-3a.833.833,0,0,0-1.174-1.173l-.427-.427,2.294-2.29Zm1.078-2.684L6.132,11.912a.267.267,0,0,0-.07.254,2.687,2.687,0,1,1-1.941-1.941.269.269,0,0,0,.254-.07L10.428,4.1a.267.267,0,0,0,.07-.254A2.656,2.656,0,0,1,13.236.539L11.828,1.947a.267.267,0,0,0-.065.273l.534,1.6a.267.267,0,0,0,.169.169l1.6.534a.267.267,0,0,0,.273-.064l1.408-1.408c0,.051,0,.1,0,.152a2.655,2.655,0,0,1-3.314,2.586.267.267,0,0,0-.254.07h0Zm0,0" transform="translate(0)" fill="#313b56"/>
    <path id="Path_270" data-name="Path 270" d="M385.936,385.294l-.377.377L382.89,383l.377-.377Zm0,0" transform="translate(-371.863 -371.871)" fill="#313b56"/>
  </g>
</svg>
