<svg xmlns="http://www.w3.org/2000/svg" xmlns:xlink="http://www.w3.org/1999/xlink" width="30" height="33" viewBox="0 0 30 33">
  <defs>
    <clipPath id="clip-weather-station-color">
      <rect width="30" height="33"/>
    </clipPath>
  </defs>
  <g id="weather-station-color" clip-path="url(#clip-weather-station-color)">
    <g id="Group_308" data-name="Group 308" transform="translate(1.127 1)">
      <g id="Group_292" data-name="Group 292" transform="translate(9.43 5.846)">
        <g id="Group_290" data-name="Group 290" transform="translate(0.403 0.403)">
          <path id="Path_333" data-name="Path 333" d="M150.635,93.779h0l-4.405-.842v13l4.405-.839Z" transform="translate(-146.23 -92.937)" fill="#ff414d"/>
        </g>
        <g id="Group_291" data-name="Group 291">
          <path id="Path_334" data-name="Path 334" d="M140.633,100.747a.4.4,0,0,1-.4-.4v-13a.4.4,0,0,1,.479-.4l4.405.842a.4.4,0,0,1,.328.4V99.5a.4.4,0,0,1-.328.4l-4.405.839a.4.4,0,0,1-.076.007Zm.4-12.918V99.856l3.6-.685V88.516l-3.6-.687Z" transform="translate(-140.23 -86.938)" fill="#002d42"/>
        </g>
      </g>
      <g id="Group_295" data-name="Group 295" transform="translate(13.813 6.687)">
        <g id="Group_293" data-name="Group 293" transform="translate(0.403 0.403)">
          <path id="Path_335" data-name="Path 335" d="M211.414,116.757l4.353-.829v-9.661l-4.353-.832Z" transform="translate(-211.414 -105.436)" fill="#d9ecf2"/>
        </g>
        <g id="Group_294" data-name="Group 294">
          <path id="Path_336" data-name="Path 336" d="M205.817,111.564a.4.4,0,0,1-.4-.4V99.839a.4.4,0,0,1,.479-.4l4.353.832a.4.4,0,0,1,.328.4v9.661a.4.4,0,0,1-.328.4l-4.353.829a.4.4,0,0,1-.075.007Zm.4-11.237v10.346l3.546-.675V101l-3.546-.677Z" transform="translate(-205.414 -99.436)" fill="#002d42"/>
        </g>
      </g>
      <g id="Group_298" data-name="Group 298" transform="translate(22.453 8.335)">
        <g id="Group_296" data-name="Group 296" transform="translate(0.403 0.403)">
          <path id="Path_337" data-name="Path 337" d="M339.9,137.97l4.2-.8v-6.422l-4.2-.8Z" transform="translate(-339.9 -129.944)" fill="#d9ecf2"/>
        </g>
        <g id="Group_297" data-name="Group 297">
          <path id="Path_338" data-name="Path 338" d="M334.3,132.777a.4.4,0,0,1-.4-.4v-8.025a.4.4,0,0,1,.479-.4l4.2.8a.4.4,0,0,1,.328.4v6.422a.4.4,0,0,1-.328.4l-4.2.8a.4.4,0,0,1-.076.007Zm.4-7.941v7.05l3.4-.647v-5.754l-3.4-.649Z" transform="translate(-333.9 -123.945)" fill="#002d42"/>
        </g>
      </g>
      <g id="Group_301" data-name="Group 301" transform="translate(18.166 7.517)">
        <g id="Group_299" data-name="Group 299" transform="translate(0.403 0.403)">
          <path id="Path_339" data-name="Path 339" d="M276.15,127.445l4.287-.817V118.6l-4.287-.819Z" transform="translate(-276.15 -117.784)" fill="#ff414d"/>
        </g>
        <g id="Group_300" data-name="Group 300">
          <path id="Path_340" data-name="Path 340" d="M270.553,122.253a.4.4,0,0,1-.4-.4v-9.661a.4.4,0,0,1,.479-.4l4.287.819a.4.4,0,0,1,.328.4v8.025a.4.4,0,0,1-.328.4l-4.287.817a.4.4,0,0,1-.076.007Zm.4-9.576v8.685l3.48-.663v-7.358l-3.48-.665Z" transform="translate(-270.15 -111.785)" fill="#002d42"/>
        </g>
      </g>
      <g id="Group_302" data-name="Group 302" transform="translate(1.093 5.783)">
        <rect id="Rectangle_912" data-name="Rectangle 912" width="2.017" height="24.343" transform="translate(0.437 0.437)" fill="#0162a7"/>
        <path id="Path_341" data-name="Path 341" d="M18.7,111.217H16.687a.437.437,0,0,1-.437-.437V86.437A.437.437,0,0,1,16.687,86H18.7a.437.437,0,0,1,.437.437V110.78a.437.437,0,0,1-.437.437Zm-1.58-.874h1.143V86.874H17.124v23.468Z" transform="translate(-16.25 -86)" fill="#002d42"/>
      </g>
      <g id="Group_303" data-name="Group 303" transform="translate(0.219 4.203)">
        <rect id="Rectangle_913" data-name="Rectangle 913" width="3.766" height="1.58" transform="translate(0.437 0.437)" fill="#d9ecf2"/>
        <path id="Path_342" data-name="Path 342" d="M7.453,64.954H3.687a.437.437,0,0,1-.437-.437v-1.58a.437.437,0,0,1,.437-.437H7.453a.437.437,0,0,1,.437.437v1.58a.437.437,0,0,1-.437.437ZM4.124,64.08H7.016v-.706H4.124v.706Z" transform="translate(-3.25 -62.5)" fill="#002d42"/>
      </g>
      <g id="Group_304" data-name="Group 304">
        <circle id="Ellipse_179" data-name="Ellipse 179" cx="2.101" cy="2.101" r="2.101" transform="translate(0.437 0.437)" fill="#0162a7"/>
        <path id="Path_343" data-name="Path 343" d="M2.538,5.077A2.538,2.538,0,1,1,5.077,2.538,2.541,2.541,0,0,1,2.538,5.077Zm0-4.2A1.664,1.664,0,1,0,4.2,2.538,1.666,1.666,0,0,0,2.538.874Z" fill="#002d42"/>
      </g>
      <g id="Group_305" data-name="Group 305" transform="translate(3.459 6.512)">
        <path id="Path_344" data-name="Path 344" d="M57.785,109.563a.436.436,0,0,1-.309-.128L51.56,103.52a.437.437,0,0,1,0-.618L57.5,96.964a.437.437,0,1,1,.618.618l-5.628,5.629,5.606,5.606a.437.437,0,0,1-.309.746Z" transform="translate(-51.432 -96.836)" fill="#002d42"/>
      </g>
      <g id="Group_306" data-name="Group 306" transform="translate(3.459 12.449)">
        <path id="Path_345" data-name="Path 345" d="M57.785,186.009H51.87a.437.437,0,1,1,0-.874h5.915a.437.437,0,1,1,0,.874Z" transform="translate(-51.433 -185.135)" fill="#002d42"/>
      </g>
      <g id="Group_307" data-name="Group 307" transform="translate(10.215 13.478)" opacity="0.19">
        <path id="Path_346" data-name="Path 346" d="M151.9,205.724v-2.009l16.452-3.286v2.157Z" transform="translate(-151.904 -200.43)" fill="#fff"/>
      </g>
    </g>
  </g>
</svg>
