{
  "iisSettings": {
    "windowsAuthentication": false,
    "anonymousAuthentication": true,
    "iisExpress": {
      "applicationUrl": "http://localhost:51970/",
      "sslPort": 0
    }
  },
  "profiles": {
    "Vtmis.Api.MMDIS": {
      "commandName": "Project",
      "environmentVariables": {
        "USERNAME": "vessel_sa",
        "Jwt_Issuer": "WebAdmin",
        "PUBLIC_HOSTNAME": "localhost",
        "SEED": "localhost",
        "Mdm_Db_ConnectionString": "Server=localhost;Port=5432;Database=Vtmis_WebAdminDb;User Id=postgres;Password=123qwe;",
        "DB_SERVER": "localhost",
        "VTS_DB_PROD_CONNECTIONSTRING": "Server=localhost;Database=VTS;User Id=vessel_sa;Password=P@ssw0rd123;Trusted_Connection=False;",
        "VTS_DB_CONNECTIONSTRING": "Server=localhost;Database=VTS;User Id=vessel_sa;Password=P@ssw0rd123;Trusted_Connection=False;",
        "Jwt_Security_Key": "WebAdmin_C421AAEE0D114E9C",
        "CORS_List": "http://localhost",
        "HOSTNAME": "0.0.0.0",
        "Jwt_Audience": "WebAdmin",
        "SEED_PORT": "4053",
        "ASPNETCORE_ENVIRONMENT": "Local",
        "PORT": "52939",
        "PASSWORD": "P@ssw0rd123"
      },
      "applicationUrl": "http://localhost:51971/"
    }
  }
}