{
  "iisSettings": {
    "windowsAuthentication": false,
    "anonymousAuthentication": true,
    "iisExpress": {
      "applicationUrl": "http://localhost:51961/",
      "sslPort": 0
    }
  },
  "profiles": {
    "Vtmis.WebAdmin.Web.Mvc": {
      "commandName": "Project",
      "environmentVariables": {
        "Jwt_Issuer": "WebAdmin",
        "Mdm_Db_ConnectionString": "Server=localhost;Port=5432;Database=Vtmis_WebAdminDb;User Id=postgres;Password=123qwe;",
        "Jwt_Security_Key": "WebAdmin_C421AAEE0D114E9C",
        "Jwt_IsEnabled": "true",
        "Jwt_Audience": "WebAdmin",
        "ASPNETCORE_ENVIRONMENT": "Local",
        "RedisConnectionString": "localhost:6379,password=123qwe,syncTimeout=50000,asyncTimeout=50000"
      },
      "applicationUrl": "http://localhost:51968/"
    }
  }
}