<?xml version="1.0" encoding="utf-8"?>
<!-- Generator: Adobe Illustrator 23.0.0, SVG Export Plug-In . SVG Version: 6.00 Build 0)  -->
<svg version="1.1" id="Layer_1" xmlns="http://www.w3.org/2000/svg" xmlns:xlink="http://www.w3.org/1999/xlink" x="0px" y="0px"
	 viewBox="0 0 26.8 26.1" style="enable-background:new 0 0 26.8 26.1;" xml:space="preserve">
<style type="text/css">
	.st0{fill:#FFFFFF;}
</style>
<path class="st0" d="M7,3.7l5.8,0c0.1,0,0.2,0,0.3,0.1l3.7,3.7c0.8,0.8,2.3,0.8,3.1,0l1.9-1.9l1,1l3.1-3.1l-3.1-3.1l-3.1,3.1
	l0.9,0.9l-1.9,1.9c-0.2,0.2-0.5,0.2-0.7,0l-3.7-3.7C13.8,2.2,13.3,2,12.7,2L6.9,2C5.6,2,4.6,3.1,4.6,4.4c0,0.5,0.1,1,0.4,1.4
	l15.6,15.6c0.1,0.1,0.1,0.2,0.1,0.4c0,0.4-0.3,0.7-0.7,0.8l-5.8,0c-0.1,0-0.2,0-0.3-0.1l-3.7-3.7c-0.8-0.8-2.3-0.8-3.1,0l-1.9,1.9
	l-0.9-0.9l-3.1,3.1l3.1,3.1l3.1-3.1l-1-1l1.9-1.9c0.2-0.2,0.5-0.2,0.7,0l3.7,3.7c0.4,0.4,0.9,0.6,1.5,0.6l5.8,0
	c1.3-0.1,2.4-1.1,2.4-2.5c0-0.5-0.1-1-0.4-1.4L6.3,4.8C6.3,4.7,6.3,4.6,6.3,4.4C6.3,4,6.6,3.7,7,3.7z M22.6,2.8l0.7,0.7l-0.7,0.7
	l-0.7-0.7L22.6,2.8z M4.3,23.5l-0.7-0.7l0.7-0.7L5,22.8L4.3,23.5z"/>
</svg>
