<svg xmlns="http://www.w3.org/2000/svg" xmlns:xlink="http://www.w3.org/1999/xlink" width="16" height="16" viewBox="0 0 16 16">
  <defs>
    <clipPath id="clip-eta-icon">
      <rect width="16" height="16"/>
    </clipPath>
  </defs>
  <g id="eta-icon" clip-path="url(#clip-eta-icon)">
    <g id="time-left" transform="translate(0.446 -1.521)">
      <g id="Layer_2_16_" transform="translate(0 1.688)">
        <g id="Group_811" data-name="Group 811" transform="translate(0 0)">
          <path id="Path_1156" data-name="Path 1156" d="M253.532,423.173c-.123.031-.249.058-.374.081a.6.6,0,0,0,.219,1.181c.148-.028.3-.06.445-.1a.6.6,0,0,0-.29-1.166Z" transform="translate(-244.552 -409.618)" fill="#fff"/>
          <path id="Path_1157" data-name="Path 1157" d="M412.634,137.393a.6.6,0,0,0,1.14-.378c-.047-.144-.1-.287-.156-.428a.6.6,0,1,0-1.115.446C412.55,137.152,412.594,137.273,412.634,137.393Z" transform="translate(-399.212 -131.889)" fill="#fff"/>
          <path id="Path_1158" data-name="Path 1158" d="M321.493,394.011c-.106.07-.215.138-.326.2a.6.6,0,1,0,.6,1.041c.131-.076.261-.156.387-.239a.6.6,0,0,0-.662-1Z" transform="translate(-310.561 -381.314)" fill="#fff"/>
          <path id="Path_1159" data-name="Path 1159" d="M428.835,207.889a.6.6,0,1,0-1.2.047c.005.127.006.255,0,.382a.6.6,0,1,0,1.2.027C428.842,208.193,428.841,208.04,428.835,207.889Z" transform="translate(-413.899 -200.707)" fill="#fff"/>
          <path id="Path_1160" data-name="Path 1160" d="M377.979,344.189a.6.6,0,0,0-.841.12c-.076.1-.157.2-.239.3a.6.6,0,0,0,.068.847c.014.012.029.023.044.034a.6.6,0,0,0,.8-.1c.1-.115.194-.235.285-.357A.6.6,0,0,0,377.979,344.189Z" transform="translate(-364.655 -333.072)" fill="#fff"/>
          <path id="Path_1161" data-name="Path 1161" d="M414.669,279.379a.6.6,0,0,0-.753.393c-.038.121-.08.242-.125.361a.6.6,0,0,0,1.123.428c.054-.141.1-.286.149-.43A.6.6,0,0,0,414.669,279.379Z" transform="translate(-400.462 -270.433)" fill="#fff"/>
          <path id="Path_1162" data-name="Path 1162" d="M6.36,15.329a6.2,6.2,0,0,1-1.541-.49L4.8,14.83c-.115-.054-.23-.112-.341-.173h0a6.408,6.408,0,0,1-.6-.373A6.268,6.268,0,0,1,3.888,4.016L3.909,4a6.279,6.279,0,0,1,7.037-.056l-.469.678c-.13.189-.05.326.178.306l2.038-.182a.336.336,0,0,0,.3-.439L12.45,2.334c-.061-.221-.218-.248-.349-.059l-.47.68A7.418,7.418,0,0,0,6.2,1.8q-.288.05-.569.121h0L5.6,1.928A7.407,7.407,0,0,0,1.494,4.68c-.009.01-.018.02-.026.031-.034.046-.068.093-.1.14-.054.077-.108.156-.159.235-.006.01-.011.019-.017.029A7.405,7.405,0,0,0,.008,9.483c0,.005,0,.01,0,.015.007.151.019.3.035.454,0,.01,0,.019,0,.029.017.151.038.3.064.454a7.413,7.413,0,0,0,2.09,4.02l.008.008,0,0a7.568,7.568,0,0,0,.957.8,7.406,7.406,0,0,0,2.978,1.246.6.6,0,0,0,.212-1.182Z" transform="translate(0 -1.688)" fill="#fff"/>
          <path id="Path_1163" data-name="Path 1163" d="M206.473,83.2a.486.486,0,0,0-.486.486v4.842l4.428,2.289a.486.486,0,0,0,.446-.863l-3.9-2.018v-4.25A.486.486,0,0,0,206.473,83.2Z" transform="translate(-199.371 -80.58)" fill="#fff"/>
        </g>
      </g>
    </g>
  </g>
</svg>
