<?xml version="1.0" encoding="utf-8"?>
<!-- Generator: Adobe Illustrator 16.0.0, SVG Export Plug-In . SVG Version: 6.00 Build 0)  -->
<!DOCTYPE svg PUBLIC "-//W3C//DTD SVG 1.1//EN" "http://www.w3.org/Graphics/SVG/1.1/DTD/svg11.dtd">
<svg version="1.1" id="Layer_1" xmlns="http://www.w3.org/2000/svg" xmlns:xlink="http://www.w3.org/1999/xlink" x="0px" y="0px"
	 width="26.794px" height="26.063px" viewBox="0 0 26.794 26.063" enable-background="new 0 0 26.794 26.063" xml:space="preserve">
<g>
	<g>
		<path fill="#FFFFFF" d="M26.185,1.935c-0.17-0.369-0.539-0.604-0.944-0.604H1.554c-0.405,0-0.773,0.235-0.944,0.604
			c-0.17,0.367-0.112,0.8,0.149,1.11l9.229,10.912v7.365c0,0.395,0.223,0.754,0.576,0.931l4.736,2.368
			c0.147,0.073,0.307,0.11,0.466,0.11c0.191,0,0.38-0.053,0.548-0.155c0.307-0.19,0.493-0.525,0.493-0.886v-9.733l9.229-10.912
			C26.297,2.734,26.355,2.302,26.185,1.935z M14.971,12.903c-0.158,0.189-0.246,0.426-0.246,0.672v8.43l-2.655-1.327v-7.103
			c0-0.247-0.087-0.483-0.246-0.672L3.797,3.412h19.2L14.971,12.903z"/>
	</g>
</g>
</svg>
