<?xml version="1.0" encoding="utf-8"?>
<!-- Generator: Adobe Illustrator 16.0.0, SVG Export Plug-In . SVG Version: 6.00 Build 0)  -->
<!DOCTYPE svg PUBLIC "-//W3C//DTD SVG 1.1//EN" "http://www.w3.org/Graphics/SVG/1.1/DTD/svg11.dtd">
<svg version="1.1" id="Layer_1" xmlns="http://www.w3.org/2000/svg" xmlns:xlink="http://www.w3.org/1999/xlink" x="0px" y="0px"
	 width="26.794px" height="26.063px" viewBox="0 0 26.794 26.063" enable-background="new 0 0 26.794 26.063" xml:space="preserve">
<g>
	<g>
		<path fill="#FFFFFF" d="M15.652,20.99H5.715c-1.678,0-4.85-1.157-4.85-5.537c0-4.035,3.336-5.1,5.1-5.1H18.84
			c0.11,0.007,2.868,0.259,4.253-0.997c0.52-0.472,0.771-1.104,0.771-1.936c0-0.669-0.219-1.209-0.67-1.65
			c-1.188-1.16-3.709-1.371-4.584-1.343H1.715c-0.469,0-0.85-0.38-0.85-0.85s0.381-0.85,0.85-0.85H18.59
			c0.138-0.003,3.841-0.075,5.788,1.822c0.787,0.768,1.188,1.733,1.188,2.87c0,1.321-0.45,2.397-1.336,3.199
			c-1.949,1.762-5.332,1.441-5.475,1.429l-12.79,0.004c-0.345,0.004-3.399,0.125-3.399,3.401c0,3.794,3.021,3.838,3.149,3.838h9.938
			c0.47,0,0.851,0.38,0.851,0.85S16.122,20.99,15.652,20.99z"/>
	</g>
	<g>
		<path fill="#FFFFFF" d="M5.517,3.904L1.403,6.595C1.137,6.769,0.918,6.652,0.918,6.333V0.821c0-0.32,0.219-0.437,0.485-0.262
			l4.114,2.707C5.784,3.442,5.783,3.728,5.517,3.904z"/>
	</g>
	<g>
		<path fill="#FFFFFF" d="M21.2,3.904l-4.113,2.691c-0.266,0.174-0.484,0.057-0.484-0.262V0.821c0-0.32,0.218-0.437,0.484-0.262
			l4.114,2.707C21.468,3.442,21.468,3.728,21.2,3.904z"/>
	</g>
	<g>
		<path fill="#FFFFFF" d="M9.616,10.948l4.113-2.691c0.267-0.174,0.485-0.057,0.485,0.262v5.513c0,0.32-0.218,0.437-0.485,0.262
			l-4.113-2.708C9.35,11.41,9.35,11.124,9.616,10.948z"/>
	</g>
	<g>
		<path fill="#FFFFFF" d="M11.531,20.467l-4.113,2.691c-0.267,0.174-0.485,0.057-0.485-0.262v-5.513c0-0.32,0.218-0.437,0.484-0.262
			l4.114,2.707C11.798,20.005,11.798,20.291,11.531,20.467z"/>
	</g>
	<g>
		<path fill="#FFFFFF" d="M22.397,20.383l-3.038,1.987c-0.196,0.128-0.358,0.042-0.358-0.192v-4.073
			c0-0.235,0.162-0.322,0.358-0.193l3.04,1.999C22.596,20.041,22.595,20.252,22.397,20.383z"/>
	</g>
	<g>
		<path fill="#FFFFFF" d="M20.482,25.585c-3.003,0-5.446-2.442-5.446-5.445s2.443-5.445,5.446-5.445s5.446,2.442,5.446,5.445
			S23.485,25.585,20.482,25.585z M20.482,16.394c-2.065,0-3.747,1.681-3.747,3.746s1.682,3.746,3.747,3.746s3.746-1.681,3.746-3.746
			S22.548,16.394,20.482,16.394z"/>
	</g>
</g>
</svg>
