<?xml version="1.0" encoding="utf-8"?>
<!-- Generator: Adobe Illustrator 16.0.0, SVG Export Plug-In . SVG Version: 6.00 Build 0)  -->
<!DOCTYPE svg PUBLIC "-//W3C//DTD SVG 1.1//EN" "http://www.w3.org/Graphics/SVG/1.1/DTD/svg11.dtd">
<svg version="1.1" id="Layer_1" xmlns="http://www.w3.org/2000/svg" xmlns:xlink="http://www.w3.org/1999/xlink" x="0px" y="0px"
	 width="26.794px" height="26.063px" viewBox="0 0 26.794 26.063" enable-background="new 0 0 26.794 26.063" xml:space="preserve">
<g>
	<g>
		<g>
			<path fill="#FFFFFF" d="M4.399,23.793c0,0.521,0.427,0.947,0.949,0.947h16.096c0.523,0,0.949-0.426,0.949-0.947
				c0-5.252-2.371-9.758-5.707-11.56c1.611-1.06,2.672-2.894,2.672-4.965c0-3.273-2.672-5.946-5.945-5.946S7.451,3.979,7.451,7.268
				c0,2.071,1.06,3.891,2.673,4.965C6.771,14.035,4.399,18.541,4.399,23.793z M13.397,3.219c2.229,0,4.047,1.818,4.047,4.049
				c0,2.229-1.818,4.048-4.047,4.048c-2.23,0-4.048-1.818-4.048-4.048C9.349,5.038,11.167,3.219,13.397,3.219z M13.397,13.26
				c3.699,0,6.736,4.222,7.068,9.583H6.329C6.661,17.482,9.697,13.26,13.397,13.26z"/>
		</g>
	</g>
</g>
</svg>
