<svg xmlns="http://www.w3.org/2000/svg" xmlns:xlink="http://www.w3.org/1999/xlink" width="26" height="26" viewBox="0 0 26 26">
  <defs>
    <clipPath id="clip-weather-side">
      <rect width="26" height="26"/>
    </clipPath>
  </defs>
  <g id="weather-side" clip-path="url(#clip-weather-side)">
    <g id="Group_752" data-name="Group 752" transform="translate(1.563 0.313)">
      <path id="Path_1106" data-name="Path 1106" d="M11.555,5.823h0L8.01,5.145V15.61l3.545-.677Z" transform="translate(0.056 0.036)" fill="#fff" opacity="0.7"/>
      <path id="Path_1107" data-name="Path 1107" d="M8.015,16.371a.755.755,0,0,1-.755-.755V5.15a.756.756,0,0,1,.9-.742l3.545.679a.754.754,0,0,1,.613.741v9.111a.755.755,0,0,1-.614.742l-3.544.676a.679.679,0,0,1-.142.014ZM8.77,6.064V14.7l2.035-.389V6.452L8.77,6.064Z" transform="translate(0.05 0.031)" fill="#fff"/>
      <path id="Path_1108" data-name="Path 1108" d="M11.513,14.929l3.5-.667V6.487l-3.5-.67Z" transform="translate(0.08 0.04)" fill="#fff" opacity="0.7"/>
      <path id="Path_1109" data-name="Path 1109" d="M11.518,15.689a.755.755,0,0,1-.755-.755V5.822a.756.756,0,0,1,.9-.742l3.5.67a.756.756,0,0,1,.614.742v7.776a.753.753,0,0,1-.614.741l-3.5.668a.734.734,0,0,1-.141.013Zm.755-8.954v7.286l1.994-.38V7.116l-1.994-.381Z" transform="translate(0.075 0.035)" fill="#fff"/>
      <path id="Path_1110" data-name="Path 1110" d="M18.418,13.592l3.383-.643V7.781l-3.383-.647Z" transform="translate(0.128 0.05)" fill="#fff" opacity="0.7"/>
      <path id="Path_1111" data-name="Path 1111" d="M18.423,14.353a.755.755,0,0,1-.755-.755V7.139a.756.756,0,0,1,.9-.742l3.382.647a.754.754,0,0,1,.614.741v5.169a.753.753,0,0,1-.614.741l-3.382.643a.679.679,0,0,1-.142.014Zm.755-6.3v4.633l1.873-.356V8.41l-1.873-.357Z" transform="translate(0.123 0.044)" fill="#fff"/>
      <path id="Path_1112" data-name="Path 1112" d="M14.993,14.256l3.45-.657V7.14l-3.45-.659Z" transform="translate(0.104 0.045)" fill="#fff" opacity="0.7"/>
      <path id="Path_1113" data-name="Path 1113" d="M15,15.016a.755.755,0,0,1-.755-.755V6.485a.754.754,0,0,1,.9-.741l3.45.659a.755.755,0,0,1,.613.742V13.6a.753.753,0,0,1-.613.741L15.139,15a.67.67,0,0,1-.141.014ZM15.753,7.4v5.95l1.938-.37V7.769L15.753,7.4Z" transform="translate(0.099 0.04)" fill="#fff"/>
      <rect id="Rectangle_920" data-name="Rectangle 920" width="1.623" height="19.591" transform="translate(1.383 5.157)" fill="#fff" opacity="0.6"/>
      <path id="Path_1114" data-name="Path 1114" d="M3,25.219H1.377a.5.5,0,0,1-.5-.5V5.125a.5.5,0,0,1,.5-.5H3a.5.5,0,0,1,.5.5v19.59a.5.5,0,0,1-.5.5ZM1.881,24.212H2.5V5.629H1.881V24.212Z" transform="translate(0.006 0.032)" fill="#fff"/>
      <rect id="Rectangle_921" data-name="Rectangle 921" width="3.031" height="1.272" transform="translate(0.68 3.885)" fill="#fff" opacity="0.6"/>
      <path id="Path_1115" data-name="Path 1115" d="M3.709,5.638H.678a.5.5,0,0,1-.5-.5V3.861a.5.5,0,0,1,.5-.5H3.709a.5.5,0,0,1,.5.5V5.134a.5.5,0,0,1-.5.5ZM1.182,4.631H3.206V4.365H1.182v.266Z" transform="translate(0.001 0.023)" fill="#fff"/>
      <path id="Path_1116" data-name="Path 1116" d="M3.882,2.192A1.691,1.691,0,1,1,2.192.5,1.69,1.69,0,0,1,3.882,2.192Z" transform="translate(0.003 0.003)" fill="#fff" opacity="0.6"/>
      <path id="Path_1117" data-name="Path 1117" d="M2.2,4.388A2.194,2.194,0,1,1,4.389,2.2,2.2,2.2,0,0,1,2.2,4.388Zm0-3.381A1.187,1.187,0,1,0,3.382,2.2,1.189,1.189,0,0,0,2.2,1.007Z" fill="#fff"/>
      <path id="Path_1118" data-name="Path 1118" d="M8.028,15.75a.5.5,0,0,1-.356-.148l-4.76-4.76a.5.5,0,0,1,0-.712L7.691,5.351a.5.5,0,1,1,.712.712L3.979,10.485l4.4,4.4a.5.5,0,0,1-.355.86Z" transform="translate(0.019 0.036)" fill="#fff"/>
      <path id="Path_1119" data-name="Path 1119" d="M8.028,10.956H3.267a.5.5,0,1,1,0-1.007H8.028a.5.5,0,0,1,0,1.007Z" transform="translate(0.019 0.069)" fill="#fff"/>
    </g>
  </g>
</svg>
