<?xml version="1.0" encoding="utf-8"?>
<!-- Generator: Adobe Illustrator 16.0.0, SVG Export Plug-In . SVG Version: 6.00 Build 0)  -->
<!DOCTYPE svg PUBLIC "-//W3C//DTD SVG 1.1//EN" "http://www.w3.org/Graphics/SVG/1.1/DTD/svg11.dtd">
<svg version="1.1" id="Layer_1" xmlns="http://www.w3.org/2000/svg" xmlns:xlink="http://www.w3.org/1999/xlink" x="0px" y="0px"
	 width="26.794px" height="26.063px" viewBox="0 0 26.794 26.063" enable-background="new 0 0 26.794 26.063" xml:space="preserve">
<g>
	<g>
		<path fill="#FFFFFF" d="M22.673,23.155H4.121c-0.469,0-0.85-0.38-0.85-0.85V3.755c0-0.47,0.381-0.85,0.85-0.85h18.552
			c0.469,0,0.85,0.38,0.85,0.85v18.551C23.522,22.775,23.142,23.155,22.673,23.155z M4.972,21.456h16.851V4.604H4.972V21.456z"/>
	</g>
	<g>
		<rect x="1.798" y="1.433" fill="#383A95" width="4.646" height="4.646"/>
		<path fill="#FFFFFF" d="M6.444,6.928H1.798c-0.47,0-0.851-0.38-0.851-0.85V1.433c0-0.47,0.381-0.85,0.851-0.85h4.646
			c0.469,0,0.85,0.38,0.85,0.85v4.646C7.294,6.548,6.913,6.928,6.444,6.928z M2.647,5.229h2.946V2.282H2.647V5.229z"/>
	</g>
	<g>
		<rect x="20.35" y="1.433" fill="#383A95" width="4.646" height="4.646"/>
		<path fill="#FFFFFF" d="M24.996,6.928H20.35c-0.47,0-0.851-0.38-0.851-0.85V1.433c0-0.47,0.381-0.85,0.851-0.85h4.646
			c0.47,0,0.851,0.38,0.851,0.85v4.646C25.847,6.548,25.466,6.928,24.996,6.928z M21.2,5.229h2.945V2.282H21.2V5.229z"/>
	</g>
	<g>
		<rect x="20.35" y="19.982" fill="#383A95" width="4.646" height="4.647"/>
		<path fill="#FFFFFF" d="M24.996,25.479H20.35c-0.47,0-0.851-0.38-0.851-0.85v-4.647c0-0.47,0.381-0.85,0.851-0.85h4.646
			c0.47,0,0.851,0.38,0.851,0.85v4.647C25.847,25.1,25.466,25.479,24.996,25.479z M21.2,23.78h2.945v-2.948H21.2V23.78z"/>
	</g>
	<g>
		<rect x="1.798" y="19.982" fill="#383A95" width="4.646" height="4.647"/>
		<path fill="#FFFFFF" d="M6.444,25.479H1.798c-0.47,0-0.851-0.38-0.851-0.85v-4.647c0-0.47,0.381-0.85,0.851-0.85h4.646
			c0.469,0,0.85,0.38,0.85,0.85v4.647C7.294,25.1,6.913,25.479,6.444,25.479z M2.647,23.78h2.946v-2.948H2.647V23.78z"/>
	</g>
</g>
</svg>
