<?xml version="1.0" encoding="utf-8"?>
<!-- Generator: Adobe Illustrator 23.0.0, SVG Export Plug-In . SVG Version: 6.00 Build 0)  -->
<svg version="1.1" id="Capa_1" xmlns="http://www.w3.org/2000/svg" xmlns:xlink="http://www.w3.org/1999/xlink" x="0px" y="0px"
	 viewBox="0 0 60 60" style="enable-background:new 0 0 60 60;" xml:space="preserve">
<style type="text/css">
	.st0{fill:#313B56;}
</style>
<g>
	<path class="st0" d="M58.4,58.4H1.6V1.6h56.7V58.4z M5.4,54.6h49.2V5.4H5.4V54.6z"/>
	<rect x="30" y="3.5" class="st0" width="26.5" height="26.5"/>
	<rect x="3.5" y="30" class="st0" width="26.5" height="26.5"/>
</g>
</svg>
